<?xml version="1.0" encoding="UTF-8"?>
<svg xmlns="http://www.w3.org/2000/svg" xmlns:xlink="http://www.w3.org/1999/xlink" width="649pt" height="374pt" viewBox="0 0 649 374" version="1.1">
<defs>
<g>
<symbol overflow="visible" id="glyph0-0">
<path style="stroke:none;" d=""/>
</symbol>
<symbol overflow="visible" id="glyph0-1">
<path style="stroke:none;" d="M 2.859375 -5.6875 L 2.859375 0 L 3.828125 0 L 3.828125 -7.984375 L 3.1875 -7.984375 C 2.84375 -6.765625 2.625 -6.59375 1.125 -6.390625 L 1.125 -5.6875 Z M 2.859375 -5.6875 "/>
</symbol>
<symbol overflow="visible" id="glyph0-2">
<path style="stroke:none;" d="M 2.109375 -1.15625 L 0.96875 -1.15625 L 0.96875 0 L 2.109375 0 Z M 2.109375 -1.15625 "/>
</symbol>
<symbol overflow="visible" id="glyph0-3">
<path style="stroke:none;" d="M 5.59375 -0.96875 L 1.46875 -0.96875 C 1.5625 -1.625 1.921875 -2.046875 2.890625 -2.625 L 3.984375 -3.25 C 5.078125 -3.859375 5.640625 -4.671875 5.640625 -5.65625 C 5.640625 -6.3125 5.375 -6.9375 4.921875 -7.375 C 4.453125 -7.78125 3.875 -7.984375 3.140625 -7.984375 C 2.140625 -7.984375 1.40625 -7.640625 0.96875 -6.953125 C 0.703125 -6.53125 0.578125 -6.03125 0.546875 -5.21875 L 1.53125 -5.21875 C 1.5625 -5.765625 1.625 -6.09375 1.75 -6.359375 C 2.015625 -6.84375 2.515625 -7.140625 3.109375 -7.140625 C 3.984375 -7.140625 4.65625 -6.5 4.65625 -5.640625 C 4.65625 -5 4.28125 -4.4375 3.59375 -4.046875 L 2.578125 -3.453125 C 0.9375 -2.5 0.46875 -1.75 0.375 -0.015625 L 5.59375 -0.015625 Z M 5.59375 -0.96875 "/>
</symbol>
<symbol overflow="visible" id="glyph0-4">
<path style="stroke:none;" d="M 5.5 -5.90625 C 5.3125 -7.21875 4.46875 -7.984375 3.28125 -7.984375 C 2.421875 -7.984375 1.640625 -7.5625 1.1875 -6.84375 C 0.6875 -6.0625 0.46875 -5.09375 0.46875 -3.640625 C 0.46875 -2.296875 0.65625 -1.453125 1.140625 -0.734375 C 1.5625 -0.09375 2.25 0.25 3.109375 0.25 C 4.59375 0.25 5.671875 -0.859375 5.671875 -2.421875 C 5.671875 -3.890625 4.671875 -4.921875 3.265625 -4.921875 C 2.5 -4.921875 1.890625 -4.640625 1.46875 -4.046875 C 1.484375 -6.03125 2.09375 -7.125 3.21875 -7.125 C 3.90625 -7.125 4.375 -6.6875 4.53125 -5.90625 Z M 3.140625 -4.0625 C 4.09375 -4.0625 4.671875 -3.40625 4.671875 -2.34375 C 4.671875 -1.34375 4.015625 -0.609375 3.109375 -0.609375 C 2.203125 -0.609375 1.53125 -1.375 1.53125 -2.390625 C 1.53125 -3.375 2.1875 -4.0625 3.140625 -4.0625 Z M 3.140625 -4.0625 "/>
</symbol>
<symbol overflow="visible" id="glyph0-5">
<path style="stroke:none;" d="M 3.03125 -7.984375 C 2.3125 -7.984375 1.640625 -7.65625 1.234375 -7.109375 C 0.734375 -6.40625 0.46875 -5.34375 0.46875 -3.859375 C 0.46875 -1.171875 1.359375 0.25 3.03125 0.25 C 4.6875 0.25 5.59375 -1.171875 5.59375 -3.796875 C 5.59375 -5.34375 5.359375 -6.390625 4.84375 -7.109375 C 4.4375 -7.671875 3.78125 -7.984375 3.03125 -7.984375 Z M 3.03125 -7.125 C 4.09375 -7.125 4.609375 -6.046875 4.609375 -3.890625 C 4.609375 -1.609375 4.09375 -0.546875 3.015625 -0.546875 C 1.984375 -0.546875 1.46875 -1.65625 1.46875 -3.859375 C 1.46875 -6.046875 1.984375 -7.125 3.03125 -7.125 Z M 3.03125 -7.125 "/>
</symbol>
<symbol overflow="visible" id="glyph0-6">
<path style="stroke:none;" d="M 0.578125 -1.828125 C 0.765625 -0.515625 1.609375 0.25 2.8125 0.25 C 3.671875 0.25 4.453125 -0.171875 4.921875 -0.890625 C 5.40625 -1.671875 5.625 -2.640625 5.625 -4.09375 C 5.625 -5.4375 5.421875 -6.28125 4.953125 -7 C 4.53125 -7.640625 3.84375 -7.984375 2.984375 -7.984375 C 1.484375 -7.984375 0.421875 -6.875 0.421875 -5.328125 C 0.421875 -3.859375 1.40625 -2.8125 2.828125 -2.8125 C 3.5625 -2.8125 4.125 -3.078125 4.625 -3.6875 C 4.609375 -1.703125 3.984375 -0.609375 2.875 -0.609375 C 2.1875 -0.609375 1.71875 -1.046875 1.5625 -1.828125 Z M 2.96875 -7.140625 C 3.875 -7.140625 4.5625 -6.375 4.5625 -5.34375 C 4.5625 -4.359375 3.90625 -3.671875 2.9375 -3.671875 C 2 -3.671875 1.40625 -4.34375 1.40625 -5.40625 C 1.40625 -6.40625 2.0625 -7.140625 2.96875 -7.140625 Z M 2.96875 -7.140625 "/>
</symbol>
<symbol overflow="visible" id="glyph0-7">
<path style="stroke:none;" d="M 3.609375 -1.9375 L 3.609375 0 L 4.578125 0 L 4.578125 -1.9375 L 5.75 -1.9375 L 5.75 -2.8125 L 4.578125 -2.8125 L 4.578125 -7.984375 L 3.859375 -7.984375 L 0.3125 -2.953125 L 0.3125 -1.9375 Z M 3.609375 -2.8125 L 1.15625 -2.8125 L 3.609375 -6.328125 Z M 3.609375 -2.8125 "/>
</symbol>
<symbol overflow="visible" id="glyph0-8">
<path style="stroke:none;" d="M 2.140625 -8.046875 L 1.109375 -8.046875 L 1.109375 0 L 2.140625 0 Z M 2.140625 -8.046875 "/>
</symbol>
<symbol overflow="visible" id="glyph0-9">
<path style="stroke:none;" d="M 0.765625 -5.78125 L 0.765625 0 L 1.703125 0 L 1.703125 -3.1875 C 1.703125 -4.375 2.3125 -5.140625 3.265625 -5.140625 C 4 -5.140625 4.46875 -4.703125 4.46875 -4.015625 L 4.46875 0 L 5.375 0 L 5.375 -4.375 C 5.375 -5.328125 4.65625 -5.953125 3.546875 -5.953125 C 2.6875 -5.953125 2.125 -5.625 1.625 -4.8125 L 1.625 -5.78125 Z M 0.765625 -5.78125 "/>
</symbol>
<symbol overflow="visible" id="glyph0-10">
<path style="stroke:none;" d="M 4.84375 -4.171875 C 4.828125 -5.3125 4.078125 -5.953125 2.734375 -5.953125 C 1.390625 -5.953125 0.515625 -5.265625 0.515625 -4.1875 C 0.515625 -3.28125 0.984375 -2.84375 2.359375 -2.515625 L 3.21875 -2.3125 C 3.859375 -2.15625 4.109375 -1.921875 4.109375 -1.515625 C 4.109375 -0.96875 3.5625 -0.59375 2.765625 -0.59375 C 2.265625 -0.59375 1.84375 -0.734375 1.609375 -0.984375 C 1.46875 -1.15625 1.40625 -1.3125 1.34375 -1.71875 L 0.375 -1.71875 C 0.421875 -0.390625 1.171875 0.25 2.6875 0.25 C 4.140625 0.25 5.078125 -0.46875 5.078125 -1.578125 C 5.078125 -2.4375 4.578125 -2.921875 3.4375 -3.1875 L 2.546875 -3.40625 C 1.796875 -3.578125 1.484375 -3.828125 1.484375 -4.234375 C 1.484375 -4.765625 1.953125 -5.109375 2.703125 -5.109375 C 3.453125 -5.109375 3.84375 -4.78125 3.859375 -4.171875 Z M 4.84375 -4.171875 "/>
</symbol>
<symbol overflow="visible" id="glyph0-11">
<path style="stroke:none;" d="M 5.203125 -3.84375 C 5.15625 -4.40625 5.03125 -4.765625 4.8125 -5.09375 C 4.421875 -5.640625 3.71875 -5.953125 2.921875 -5.953125 C 1.34375 -5.953125 0.34375 -4.71875 0.34375 -2.796875 C 0.34375 -0.921875 1.34375 0.25 2.90625 0.25 C 4.28125 0.25 5.15625 -0.578125 5.265625 -1.984375 L 4.34375 -1.984375 C 4.1875 -1.0625 3.71875 -0.59375 2.921875 -0.59375 C 1.90625 -0.59375 1.296875 -1.421875 1.296875 -2.796875 C 1.296875 -4.234375 1.90625 -5.109375 2.90625 -5.109375 C 3.671875 -5.109375 4.171875 -4.65625 4.28125 -3.84375 Z M 5.203125 -3.84375 "/>
</symbol>
<symbol overflow="visible" id="glyph0-12">
<path style="stroke:none;" d="M 0.765625 -5.78125 L 0.765625 0 L 1.6875 0 L 1.6875 -3 C 1.703125 -4.390625 2.28125 -5.015625 3.546875 -4.984375 L 3.546875 -5.921875 C 3.390625 -5.9375 3.296875 -5.953125 3.1875 -5.953125 C 2.59375 -5.953125 2.140625 -5.59375 1.609375 -4.734375 L 1.609375 -5.78125 Z M 0.765625 -5.78125 "/>
</symbol>
<symbol overflow="visible" id="glyph0-13">
<path style="stroke:none;" d="M 1.65625 -5.78125 L 0.734375 -5.78125 L 0.734375 0 L 1.65625 0 Z M 1.65625 -8.046875 L 0.734375 -8.046875 L 0.734375 -6.890625 L 1.65625 -6.890625 Z M 1.65625 -8.046875 "/>
</symbol>
<symbol overflow="visible" id="glyph0-14">
<path style="stroke:none;" d="M 0.59375 2.40625 L 1.53125 2.40625 L 1.53125 -0.609375 C 2.015625 -0.015625 2.546875 0.25 3.296875 0.25 C 4.8125 0.25 5.78125 -0.953125 5.78125 -2.796875 C 5.78125 -4.734375 4.828125 -5.953125 3.296875 -5.953125 C 2.5 -5.953125 1.875 -5.59375 1.453125 -4.921875 L 1.453125 -5.78125 L 0.59375 -5.78125 Z M 3.140625 -5.09375 C 4.15625 -5.09375 4.8125 -4.203125 4.8125 -2.8125 C 4.8125 -1.5 4.140625 -0.609375 3.140625 -0.609375 C 2.15625 -0.609375 1.53125 -1.484375 1.53125 -2.84375 C 1.53125 -4.203125 2.15625 -5.09375 3.140625 -5.09375 Z M 3.140625 -5.09375 "/>
</symbol>
<symbol overflow="visible" id="glyph0-15">
<path style="stroke:none;" d="M 2.8125 -5.78125 L 1.859375 -5.78125 L 1.859375 -7.375 L 0.9375 -7.375 L 0.9375 -5.78125 L 0.15625 -5.78125 L 0.15625 -5.03125 L 0.9375 -5.03125 L 0.9375 -0.65625 C 0.9375 -0.0625 1.34375 0.25 2.0625 0.25 C 2.296875 0.25 2.5 0.234375 2.8125 0.171875 L 2.8125 -0.59375 C 2.671875 -0.5625 2.546875 -0.546875 2.359375 -0.546875 C 1.96875 -0.546875 1.859375 -0.65625 1.859375 -1.078125 L 1.859375 -5.03125 L 2.8125 -5.03125 Z M 2.8125 -5.78125 "/>
</symbol>
<symbol overflow="visible" id="glyph0-16">
<path style="stroke:none;" d="M 2.03125 -3.40625 L 4.5625 -3.40625 C 5.1875 -3.40625 5.6875 -3.59375 6.125 -3.984375 C 6.609375 -4.4375 6.8125 -4.953125 6.8125 -5.6875 C 6.8125 -7.203125 5.921875 -8.046875 4.328125 -8.046875 L 1 -8.046875 L 1 0 L 2.03125 0 Z M 2.03125 -4.3125 L 2.03125 -7.140625 L 4.171875 -7.140625 C 5.15625 -7.140625 5.75 -6.609375 5.75 -5.734375 C 5.75 -4.84375 5.15625 -4.3125 4.171875 -4.3125 Z M 2.03125 -4.3125 "/>
</symbol>
<symbol overflow="visible" id="glyph0-17">
<path style="stroke:none;" d="M 5.328125 0 L 5.328125 -5.78125 L 4.40625 -5.78125 L 4.40625 -2.5 C 4.40625 -1.328125 3.796875 -0.546875 2.828125 -0.546875 C 2.09375 -0.546875 1.640625 -1 1.640625 -1.6875 L 1.640625 -5.78125 L 0.71875 -5.78125 L 0.71875 -1.328125 C 0.71875 -0.359375 1.4375 0.25 2.5625 0.25 C 3.40625 0.25 3.953125 -0.046875 4.5 -0.8125 L 4.5 0 Z M 5.328125 0 "/>
</symbol>
<symbol overflow="visible" id="glyph0-18">
<path style="stroke:none;" d="M 0.765625 -8.046875 L 0.765625 0 L 1.6875 0 L 1.6875 -3.1875 C 1.6875 -4.375 2.3125 -5.140625 3.265625 -5.140625 C 3.5625 -5.140625 3.859375 -5.0625 4.078125 -4.890625 C 4.34375 -4.6875 4.453125 -4.421875 4.453125 -4.015625 L 4.453125 0 L 5.375 0 L 5.375 -4.375 C 5.375 -5.34375 4.671875 -5.953125 3.546875 -5.953125 C 2.734375 -5.953125 2.234375 -5.703125 1.6875 -5 L 1.6875 -8.046875 Z M 0.765625 -8.046875 "/>
</symbol>
<symbol overflow="visible" id="glyph0-19">
<path style="stroke:none;" d="M 5.90625 -0.546875 C 5.8125 -0.515625 5.765625 -0.515625 5.71875 -0.515625 C 5.390625 -0.515625 5.21875 -0.6875 5.21875 -0.96875 L 5.21875 -4.375 C 5.21875 -5.40625 4.46875 -5.953125 3.03125 -5.953125 C 2.1875 -5.953125 1.515625 -5.71875 1.109375 -5.28125 C 0.84375 -4.984375 0.734375 -4.65625 0.71875 -4.078125 L 1.640625 -4.078125 C 1.71875 -4.78125 2.140625 -5.109375 3 -5.109375 C 3.84375 -5.109375 4.296875 -4.796875 4.296875 -4.234375 L 4.296875 -4 C 4.28125 -3.59375 4.09375 -3.453125 3.34375 -3.359375 C 2.03125 -3.1875 1.828125 -3.140625 1.484375 -3 C 0.8125 -2.71875 0.46875 -2.203125 0.46875 -1.453125 C 0.46875 -0.40625 1.1875 0.25 2.359375 0.25 C 3.09375 0.25 3.671875 0 4.328125 -0.59375 C 4.390625 0 4.6875 0.25 5.28125 0.25 C 5.484375 0.25 5.59375 0.234375 5.90625 0.15625 Z M 4.296875 -1.828125 C 4.296875 -1.515625 4.203125 -1.328125 3.9375 -1.078125 C 3.5625 -0.734375 3.109375 -0.546875 2.5625 -0.546875 C 1.84375 -0.546875 1.421875 -0.890625 1.421875 -1.484375 C 1.421875 -2.09375 1.828125 -2.390625 2.8125 -2.546875 C 3.796875 -2.671875 3.984375 -2.71875 4.296875 -2.859375 Z M 4.296875 -1.828125 "/>
</symbol>
<symbol overflow="visible" id="glyph0-20">
<path style="stroke:none;" d="M 5.234375 -2.421875 L 6.0625 0 L 7.21875 0 L 4.390625 -8.046875 L 3.0625 -8.046875 L 0.1875 0 L 1.28125 0 L 2.125 -2.421875 Z M 4.953125 -3.28125 L 2.390625 -3.28125 L 3.71875 -6.953125 Z M 4.953125 -3.28125 "/>
</symbol>
<symbol overflow="visible" id="glyph0-21">
<path style="stroke:none;" d="M 0.765625 -5.78125 L 0.765625 0 L 1.703125 0 L 1.703125 -3.640625 C 1.703125 -4.46875 2.3125 -5.140625 3.0625 -5.140625 C 3.75 -5.140625 4.125 -4.734375 4.125 -3.984375 L 4.125 0 L 5.0625 0 L 5.0625 -3.640625 C 5.0625 -4.46875 5.671875 -5.140625 6.421875 -5.140625 C 7.09375 -5.140625 7.484375 -4.71875 7.484375 -3.984375 L 7.484375 0 L 8.421875 0 L 8.421875 -4.34375 C 8.421875 -5.375 7.828125 -5.953125 6.734375 -5.953125 C 5.96875 -5.953125 5.5 -5.71875 4.953125 -5.078125 C 4.625 -5.6875 4.15625 -5.953125 3.40625 -5.953125 C 2.625 -5.953125 2.109375 -5.671875 1.625 -4.96875 L 1.625 -5.78125 Z M 0.765625 -5.78125 "/>
</symbol>
<symbol overflow="visible" id="glyph0-22">
<path style="stroke:none;" d="M 0.59375 -8.046875 L 0.59375 0 L 1.421875 0 L 1.421875 -0.734375 C 1.859375 -0.0625 2.453125 0.25 3.265625 0.25 C 4.78125 0.25 5.78125 -1 5.78125 -2.921875 C 5.78125 -4.796875 4.84375 -5.953125 3.296875 -5.953125 C 2.5 -5.953125 1.9375 -5.65625 1.515625 -5 L 1.515625 -8.046875 Z M 3.125 -5.09375 C 4.15625 -5.09375 4.8125 -4.203125 4.8125 -2.8125 C 4.8125 -1.5 4.125 -0.609375 3.125 -0.609375 C 2.140625 -0.609375 1.515625 -1.484375 1.515625 -2.84375 C 1.515625 -4.203125 2.140625 -5.09375 3.125 -5.09375 Z M 3.125 -5.09375 "/>
</symbol>
<symbol overflow="visible" id="glyph0-23">
<path style="stroke:none;" d="M 2.0625 -3.46875 L 4.703125 -3.46875 C 5.625 -3.46875 6.03125 -3.03125 6.03125 -2.03125 L 6.015625 -1.3125 C 6.015625 -0.8125 6.109375 -0.328125 6.25 0 L 7.5 0 L 7.5 -0.25 C 7.109375 -0.515625 7.03125 -0.8125 7.015625 -1.875 C 7 -3.203125 6.796875 -3.59375 5.921875 -3.984375 C 6.828125 -4.4375 7.1875 -4.96875 7.1875 -5.90625 C 7.1875 -7.296875 6.328125 -8.046875 4.734375 -8.046875 L 1.03125 -8.046875 L 1.03125 0 L 2.0625 0 Z M 2.0625 -4.375 L 2.0625 -7.140625 L 4.546875 -7.140625 C 5.109375 -7.140625 5.453125 -7.0625 5.703125 -6.84375 C 5.96875 -6.609375 6.125 -6.234375 6.125 -5.765625 C 6.125 -4.8125 5.640625 -4.375 4.546875 -4.375 Z M 2.0625 -4.375 "/>
</symbol>
<symbol overflow="visible" id="glyph0-24">
<path style="stroke:none;" d="M 5.671875 -2.578125 C 5.671875 -3.46875 5.59375 -4 5.4375 -4.4375 C 5.0625 -5.375 4.171875 -5.953125 3.09375 -5.953125 C 1.484375 -5.953125 0.4375 -4.734375 0.4375 -2.8125 C 0.4375 -0.90625 1.4375 0.25 3.078125 0.25 C 4.390625 0.25 5.3125 -0.5 5.546875 -1.75 L 4.625 -1.75 C 4.359375 -1 3.84375 -0.59375 3.109375 -0.59375 C 2.515625 -0.59375 2.015625 -0.859375 1.71875 -1.34375 C 1.484375 -1.671875 1.40625 -2.015625 1.40625 -2.578125 Z M 1.421875 -3.34375 C 1.5 -4.40625 2.15625 -5.109375 3.078125 -5.109375 C 4.015625 -5.109375 4.671875 -4.375 4.671875 -3.34375 Z M 1.421875 -3.34375 "/>
</symbol>
<symbol overflow="visible" id="glyph0-25">
<path style="stroke:none;" d="M 4.46875 -5.78125 L 4.46875 -4.953125 C 4 -5.640625 3.484375 -5.953125 2.765625 -5.953125 C 1.359375 -5.953125 0.390625 -4.65625 0.390625 -2.796875 C 0.390625 -1.828125 0.625 -1.109375 1.109375 -0.53125 C 1.546875 -0.015625 2.09375 0.25 2.703125 0.25 C 3.390625 0.25 3.890625 -0.0625 4.375 -0.78125 L 4.375 -0.484375 C 4.375 1.0625 3.9375 1.640625 2.796875 1.640625 C 2.015625 1.640625 1.609375 1.328125 1.515625 0.65625 L 0.578125 0.65625 C 0.65625 1.734375 1.515625 2.40625 2.765625 2.40625 C 3.625 2.40625 4.328125 2.125 4.703125 1.671875 C 5.140625 1.125 5.3125 0.40625 5.3125 -0.953125 L 5.3125 -5.78125 Z M 2.84375 -5.109375 C 3.828125 -5.109375 4.375 -4.28125 4.375 -2.8125 C 4.375 -1.40625 3.8125 -0.59375 2.84375 -0.59375 C 1.90625 -0.59375 1.34375 -1.421875 1.34375 -2.84375 C 1.34375 -4.265625 1.90625 -5.109375 2.84375 -5.109375 Z M 2.84375 -5.109375 "/>
</symbol>
<symbol overflow="visible" id="glyph0-26">
<path style="stroke:none;" d="M 3 -5.953125 C 1.375 -5.953125 0.390625 -4.796875 0.390625 -2.84375 C 0.390625 -0.890625 1.375 0.25 3.015625 0.25 C 4.65625 0.25 5.640625 -0.90625 5.640625 -2.8125 C 5.640625 -4.8125 4.6875 -5.953125 3 -5.953125 Z M 3.015625 -5.109375 C 4.046875 -5.109375 4.671875 -4.25 4.671875 -2.8125 C 4.671875 -1.453125 4.03125 -0.59375 3.015625 -0.59375 C 1.984375 -0.59375 1.359375 -1.453125 1.359375 -2.84375 C 1.359375 -4.25 1.984375 -5.109375 3.015625 -5.109375 Z M 3.015625 -5.109375 "/>
</symbol>
<symbol overflow="visible" id="glyph0-27">
<path style="stroke:none;" d="M 7.3125 -5.5625 C 7 -7.328125 5.96875 -8.1875 4.203125 -8.1875 C 3.125 -8.1875 2.25 -7.84375 1.65625 -7.1875 C 0.921875 -6.390625 0.53125 -5.234375 0.53125 -3.9375 C 0.53125 -2.609375 0.9375 -1.46875 1.6875 -0.6875 C 2.3125 -0.046875 3.109375 0.25 4.171875 0.25 C 6.125 0.25 7.234375 -0.8125 7.484375 -2.9375 L 6.421875 -2.9375 C 6.328125 -2.390625 6.21875 -2.015625 6.046875 -1.6875 C 5.71875 -1.03125 5.03125 -0.65625 4.171875 -0.65625 C 2.578125 -0.65625 1.5625 -1.9375 1.5625 -3.9375 C 1.5625 -6.015625 2.515625 -7.28125 4.09375 -7.28125 C 4.734375 -7.28125 5.34375 -7.09375 5.671875 -6.765625 C 5.96875 -6.5 6.140625 -6.171875 6.265625 -5.5625 Z M 7.3125 -5.5625 "/>
</symbol>
<symbol overflow="visible" id="glyph1-0">
<path style="stroke:none;" d=""/>
</symbol>
<symbol overflow="visible" id="glyph1-1">
<path style="stroke:none;" d="M 8.734375 -6.640625 C 8.359375 -8.75 7.140625 -9.78125 5.03125 -9.78125 C 3.734375 -9.78125 2.6875 -9.375 1.984375 -8.578125 C 1.109375 -7.625 0.640625 -6.265625 0.640625 -4.703125 C 0.640625 -3.109375 1.125 -1.75 2.015625 -0.8125 C 2.765625 -0.046875 3.71875 0.296875 4.984375 0.296875 C 7.328125 0.296875 8.640625 -0.96875 8.9375 -3.515625 L 7.671875 -3.515625 C 7.5625 -2.859375 7.4375 -2.40625 7.234375 -2.015625 C 6.84375 -1.234375 6.015625 -0.78125 4.984375 -0.78125 C 3.078125 -0.78125 1.859375 -2.3125 1.859375 -4.71875 C 1.859375 -7.1875 3.015625 -8.703125 4.890625 -8.703125 C 5.671875 -8.703125 6.390625 -8.46875 6.78125 -8.09375 C 7.140625 -7.765625 7.34375 -7.375 7.484375 -6.640625 Z M 8.734375 -6.640625 "/>
</symbol>
<symbol overflow="visible" id="glyph1-2">
<path style="stroke:none;" d="M 3.59375 -7.109375 C 1.640625 -7.109375 0.46875 -5.734375 0.46875 -3.40625 C 0.46875 -1.0625 1.640625 0.296875 3.609375 0.296875 C 5.5625 0.296875 6.734375 -1.078125 6.734375 -3.359375 C 6.734375 -5.75 5.59375 -7.109375 3.59375 -7.109375 Z M 3.609375 -6.09375 C 4.84375 -6.09375 5.578125 -5.078125 5.578125 -3.359375 C 5.578125 -1.734375 4.8125 -0.71875 3.609375 -0.71875 C 2.375 -0.71875 1.625 -1.734375 1.625 -3.40625 C 1.625 -5.078125 2.375 -6.09375 3.609375 -6.09375 Z M 3.609375 -6.09375 "/>
</symbol>
<symbol overflow="visible" id="glyph1-3">
<path style="stroke:none;" d="M 0.921875 -6.921875 L 0.921875 0 L 2.03125 0 L 2.03125 -4.34375 C 2.03125 -5.34375 2.765625 -6.15625 3.65625 -6.15625 C 4.46875 -6.15625 4.9375 -5.65625 4.9375 -4.765625 L 4.9375 0 L 6.046875 0 L 6.046875 -4.34375 C 6.046875 -5.34375 6.765625 -6.15625 7.671875 -6.15625 C 8.46875 -6.15625 8.953125 -5.640625 8.953125 -4.765625 L 8.953125 0 L 10.0625 0 L 10.0625 -5.1875 C 10.0625 -6.4375 9.34375 -7.109375 8.046875 -7.109375 C 7.125 -7.109375 6.578125 -6.84375 5.921875 -6.0625 C 5.515625 -6.796875 4.96875 -7.109375 4.0625 -7.109375 C 3.140625 -7.109375 2.515625 -6.765625 1.9375 -5.9375 L 1.9375 -6.921875 Z M 0.921875 -6.921875 "/>
</symbol>
<symbol overflow="visible" id="glyph1-4">
<path style="stroke:none;" d="M 0.71875 2.875 L 1.828125 2.875 L 1.828125 -0.71875 C 2.40625 -0.015625 3.046875 0.296875 3.953125 0.296875 C 5.75 0.296875 6.90625 -1.140625 6.90625 -3.34375 C 6.90625 -5.671875 5.765625 -7.109375 3.9375 -7.109375 C 3 -7.109375 2.25 -6.6875 1.734375 -5.875 L 1.734375 -6.921875 L 0.71875 -6.921875 Z M 3.75 -6.09375 C 4.96875 -6.09375 5.75 -5.015625 5.75 -3.359375 C 5.75 -1.796875 4.953125 -0.71875 3.75 -0.71875 C 2.578125 -0.71875 1.828125 -1.78125 1.828125 -3.40625 C 1.828125 -5.03125 2.578125 -6.09375 3.75 -6.09375 Z M 3.75 -6.09375 "/>
</symbol>
<symbol overflow="visible" id="glyph1-5">
<path style="stroke:none;" d="M 7.0625 -0.640625 C 6.9375 -0.625 6.890625 -0.625 6.828125 -0.625 C 6.4375 -0.625 6.234375 -0.8125 6.234375 -1.15625 L 6.234375 -5.234375 C 6.234375 -6.453125 5.328125 -7.109375 3.625 -7.109375 C 2.609375 -7.109375 1.8125 -6.828125 1.328125 -6.3125 C 1.015625 -5.953125 0.890625 -5.5625 0.859375 -4.875 L 1.96875 -4.875 C 2.0625 -5.71875 2.5625 -6.09375 3.59375 -6.09375 C 4.59375 -6.09375 5.140625 -5.734375 5.140625 -5.0625 L 5.140625 -4.78125 C 5.125 -4.296875 4.890625 -4.125 3.984375 -4.015625 C 2.421875 -3.8125 2.1875 -3.765625 1.765625 -3.59375 C 0.96875 -3.25 0.546875 -2.640625 0.546875 -1.75 C 0.546875 -0.484375 1.421875 0.296875 2.828125 0.296875 C 3.703125 0.296875 4.390625 0 5.171875 -0.71875 C 5.25 0 5.59375 0.296875 6.3125 0.296875 C 6.546875 0.296875 6.6875 0.28125 7.0625 0.1875 Z M 5.140625 -2.171875 C 5.140625 -1.8125 5.03125 -1.578125 4.703125 -1.28125 C 4.25 -0.875 3.703125 -0.65625 3.0625 -0.65625 C 2.203125 -0.65625 1.703125 -1.0625 1.703125 -1.765625 C 1.703125 -2.5 2.171875 -2.859375 3.359375 -3.03125 C 4.546875 -3.1875 4.765625 -3.25 5.140625 -3.421875 Z M 5.140625 -2.171875 "/>
</symbol>
<symbol overflow="visible" id="glyph1-6">
<path style="stroke:none;" d="M 0.90625 -6.921875 L 0.90625 0 L 2.015625 0 L 2.015625 -3.59375 C 2.03125 -5.25 2.71875 -6 4.234375 -5.953125 L 4.234375 -7.078125 C 4.046875 -7.109375 3.953125 -7.109375 3.8125 -7.109375 C 3.109375 -7.109375 2.5625 -6.6875 1.921875 -5.671875 L 1.921875 -6.921875 Z M 0.90625 -6.921875 "/>
</symbol>
<symbol overflow="visible" id="glyph1-7">
<path style="stroke:none;" d="M 1.984375 -6.921875 L 0.890625 -6.921875 L 0.890625 0 L 1.984375 0 Z M 1.984375 -9.625 L 0.875 -9.625 L 0.875 -8.234375 L 1.984375 -8.234375 Z M 1.984375 -9.625 "/>
</symbol>
<symbol overflow="visible" id="glyph1-8">
<path style="stroke:none;" d="M 5.78125 -4.984375 C 5.765625 -6.34375 4.875 -7.109375 3.28125 -7.109375 C 1.65625 -7.109375 0.625 -6.28125 0.625 -5 C 0.625 -3.921875 1.171875 -3.40625 2.8125 -3.015625 L 3.84375 -2.765625 C 4.609375 -2.578125 4.90625 -2.296875 4.90625 -1.8125 C 4.90625 -1.15625 4.265625 -0.71875 3.296875 -0.71875 C 2.703125 -0.71875 2.203125 -0.890625 1.921875 -1.171875 C 1.75 -1.375 1.671875 -1.578125 1.609375 -2.0625 L 0.453125 -2.0625 C 0.5 -0.46875 1.40625 0.296875 3.203125 0.296875 C 4.953125 0.296875 6.0625 -0.546875 6.0625 -1.890625 C 6.0625 -2.921875 5.484375 -3.484375 4.109375 -3.8125 L 3.046875 -4.0625 C 2.15625 -4.28125 1.765625 -4.5625 1.765625 -5.0625 C 1.765625 -5.703125 2.34375 -6.09375 3.234375 -6.09375 C 4.125 -6.09375 4.59375 -5.71875 4.625 -4.984375 Z M 5.78125 -4.984375 "/>
</symbol>
<symbol overflow="visible" id="glyph1-9">
<path style="stroke:none;" d="M 0.921875 -6.921875 L 0.921875 0 L 2.03125 0 L 2.03125 -3.8125 C 2.03125 -5.234375 2.765625 -6.15625 3.90625 -6.15625 C 4.78125 -6.15625 5.328125 -5.625 5.328125 -4.796875 L 5.328125 0 L 6.4375 0 L 6.4375 -5.234375 C 6.4375 -6.375 5.578125 -7.109375 4.234375 -7.109375 C 3.203125 -7.109375 2.546875 -6.71875 1.9375 -5.75 L 1.9375 -6.921875 Z M 0.921875 -6.921875 "/>
</symbol>
<symbol overflow="visible" id="glyph1-10">
<path style="stroke:none;" d=""/>
</symbol>
<symbol overflow="visible" id="glyph1-11">
<path style="stroke:none;" d="M 3.40625 -6.921875 L 2.25 -6.921875 L 2.25 -8 C 2.25 -8.46875 2.515625 -8.703125 3.03125 -8.703125 C 3.109375 -8.703125 3.15625 -8.703125 3.40625 -8.6875 L 3.40625 -9.59375 C 3.15625 -9.65625 3.015625 -9.671875 2.78125 -9.671875 C 1.765625 -9.671875 1.15625 -9.078125 1.15625 -8.09375 L 1.15625 -6.921875 L 0.234375 -6.921875 L 0.234375 -6.015625 L 1.15625 -6.015625 L 1.15625 0 L 2.25 0 L 2.25 -6.015625 L 3.40625 -6.015625 Z M 3.40625 -6.921875 "/>
</symbol>
<symbol overflow="visible" id="glyph1-12">
<path style="stroke:none;" d="M 2 -9.625 L 0.890625 -9.625 L 0.890625 0 L 2 0 Z M 2 -9.625 "/>
</symbol>
<symbol overflow="visible" id="glyph1-13">
<path style="stroke:none;" d="M 5.125 -6.921875 L 3.203125 -1.53125 L 1.4375 -6.921875 L 0.265625 -6.921875 L 2.59375 0.03125 L 2.171875 1.125 C 2 1.609375 1.75 1.796875 1.296875 1.796875 C 1.109375 1.796875 0.953125 1.765625 0.71875 1.71875 L 0.71875 2.703125 C 0.9375 2.828125 1.15625 2.875 1.453125 2.875 C 1.8125 2.875 2.1875 2.765625 2.484375 2.546875 C 2.828125 2.296875 3.03125 2 3.234375 1.453125 L 6.3125 -6.921875 Z M 5.125 -6.921875 "/>
</symbol>
<symbol overflow="visible" id="glyph1-14">
<path style="stroke:none;" d="M 6.359375 0 L 6.359375 -6.921875 L 5.265625 -6.921875 L 5.265625 -3 C 5.265625 -1.578125 4.53125 -0.65625 3.375 -0.65625 C 2.515625 -0.65625 1.953125 -1.1875 1.953125 -2.015625 L 1.953125 -6.921875 L 0.859375 -6.921875 L 0.859375 -1.578125 C 0.859375 -0.4375 1.71875 0.296875 3.0625 0.296875 C 4.078125 0.296875 4.734375 -0.046875 5.375 -0.96875 L 5.375 0 Z M 6.359375 0 "/>
</symbol>
<symbol overflow="visible" id="glyph1-15">
<path style="stroke:none;" d="M 3.359375 -6.921875 L 2.21875 -6.921875 L 2.21875 -8.8125 L 1.125 -8.8125 L 1.125 -6.921875 L 0.1875 -6.921875 L 0.1875 -6.015625 L 1.125 -6.015625 L 1.125 -0.796875 C 1.125 -0.078125 1.59375 0.296875 2.453125 0.296875 C 2.75 0.296875 2.984375 0.28125 3.359375 0.21875 L 3.359375 -0.71875 C 3.1875 -0.671875 3.046875 -0.65625 2.828125 -0.65625 C 2.34375 -0.65625 2.21875 -0.796875 2.21875 -1.28125 L 2.21875 -6.015625 L 3.359375 -6.015625 Z M 3.359375 -6.921875 "/>
</symbol>
<symbol overflow="visible" id="glyph1-16">
<path style="stroke:none;" d="M 0.71875 -9.625 L 0.71875 0 L 1.703125 0 L 1.703125 -0.890625 C 2.234375 -0.078125 2.9375 0.296875 3.890625 0.296875 C 5.71875 0.296875 6.90625 -1.1875 6.90625 -3.484375 C 6.90625 -5.734375 5.78125 -7.109375 3.953125 -7.109375 C 3 -7.109375 2.328125 -6.765625 1.8125 -5.984375 L 1.8125 -9.625 Z M 3.734375 -6.09375 C 4.96875 -6.09375 5.75 -5.015625 5.75 -3.359375 C 5.75 -1.796875 4.9375 -0.71875 3.734375 -0.71875 C 2.5625 -0.71875 1.8125 -1.78125 1.8125 -3.40625 C 1.8125 -5.03125 2.5625 -6.09375 3.734375 -6.09375 Z M 3.734375 -6.09375 "/>
</symbol>
<symbol overflow="visible" id="glyph1-17">
<path style="stroke:none;" d="M 3.765625 0 L 6.421875 -6.921875 L 5.171875 -6.921875 L 3.21875 -1.3125 L 1.375 -6.921875 L 0.125 -6.921875 L 2.5625 0 Z M 3.765625 0 "/>
</symbol>
<symbol overflow="visible" id="glyph1-18">
<path style="stroke:none;" d="M 6.765625 -3.09375 C 6.765625 -4.140625 6.6875 -4.78125 6.5 -5.296875 C 6.046875 -6.4375 4.984375 -7.109375 3.703125 -7.109375 C 1.765625 -7.109375 0.53125 -5.65625 0.53125 -3.359375 C 0.53125 -1.078125 1.71875 0.296875 3.671875 0.296875 C 5.25 0.296875 6.34375 -0.59375 6.625 -2.09375 L 5.515625 -2.09375 C 5.21875 -1.1875 4.59375 -0.71875 3.703125 -0.71875 C 3.015625 -0.71875 2.421875 -1.03125 2.046875 -1.609375 C 1.78125 -2 1.6875 -2.40625 1.671875 -3.09375 Z M 1.703125 -3.984375 C 1.796875 -5.265625 2.578125 -6.09375 3.6875 -6.09375 C 4.8125 -6.09375 5.578125 -5.234375 5.578125 -3.984375 Z M 1.703125 -3.984375 "/>
</symbol>
<symbol overflow="visible" id="glyph1-19">
<path style="stroke:none;" d="M 5.328125 -6.921875 L 5.328125 -5.921875 C 4.78125 -6.75 4.171875 -7.109375 3.296875 -7.109375 C 1.625 -7.109375 0.46875 -5.5625 0.46875 -3.34375 C 0.46875 -2.171875 0.734375 -1.328125 1.328125 -0.640625 C 1.84375 -0.03125 2.515625 0.296875 3.21875 0.296875 C 4.046875 0.296875 4.640625 -0.0625 5.234375 -0.9375 L 5.234375 -0.578125 C 5.234375 1.265625 4.71875 1.953125 3.34375 1.953125 C 2.40625 1.953125 1.921875 1.578125 1.8125 0.796875 L 0.6875 0.796875 C 0.796875 2.078125 1.8125 2.875 3.3125 2.875 C 4.328125 2.875 5.171875 2.546875 5.625 2 C 6.15625 1.34375 6.34375 0.484375 6.34375 -1.140625 L 6.34375 -6.921875 Z M 3.40625 -6.09375 C 4.5625 -6.09375 5.234375 -5.125 5.234375 -3.359375 C 5.234375 -1.6875 4.5625 -0.71875 3.40625 -0.71875 C 2.265625 -0.71875 1.609375 -1.703125 1.609375 -3.40625 C 1.609375 -5.09375 2.265625 -6.09375 3.40625 -6.09375 Z M 3.40625 -6.09375 "/>
</symbol>
<symbol overflow="visible" id="glyph1-20">
<path style="stroke:none;" d="M 1.859375 -9.625 L 0.765625 -9.625 L 0.765625 0 L 1.859375 0 L 1.859375 -2.6875 L 2.9375 -3.75 L 5.265625 0 L 6.625 0 L 3.796875 -4.53125 L 6.203125 -6.921875 L 4.796875 -6.921875 L 1.859375 -3.984375 Z M 1.859375 -9.625 "/>
</symbol>
<symbol overflow="visible" id="glyph1-21">
<path style="stroke:none;" d="M 6.21875 -4.59375 C 6.171875 -5.265625 6.015625 -5.703125 5.75 -6.09375 C 5.28125 -6.734375 4.453125 -7.109375 3.484375 -7.109375 C 1.609375 -7.109375 0.40625 -5.640625 0.40625 -3.34375 C 0.40625 -1.109375 1.59375 0.296875 3.46875 0.296875 C 5.125 0.296875 6.171875 -0.6875 6.296875 -2.375 L 5.1875 -2.375 C 5 -1.265625 4.4375 -0.71875 3.5 -0.71875 C 2.28125 -0.71875 1.5625 -1.703125 1.5625 -3.34375 C 1.5625 -5.0625 2.265625 -6.09375 3.46875 -6.09375 C 4.390625 -6.09375 4.984375 -5.5625 5.109375 -4.59375 Z M 6.21875 -4.59375 "/>
</symbol>
<symbol overflow="visible" id="glyph1-22">
<path style="stroke:none;" d="M 6.53125 -9.625 L 5.4375 -9.625 L 5.4375 -6.046875 C 4.984375 -6.75 4.234375 -7.109375 3.3125 -7.109375 C 1.515625 -7.109375 0.34375 -5.671875 0.34375 -3.46875 C 0.34375 -1.140625 1.484375 0.296875 3.359375 0.296875 C 4.296875 0.296875 4.96875 -0.046875 5.5625 -0.90625 L 5.5625 0 L 6.53125 0 Z M 3.5 -6.09375 C 4.6875 -6.09375 5.4375 -5.046875 5.4375 -3.375 C 5.4375 -1.78125 4.671875 -0.71875 3.515625 -0.71875 C 2.296875 -0.71875 1.484375 -1.796875 1.484375 -3.40625 C 1.484375 -5.015625 2.296875 -6.09375 3.5 -6.09375 Z M 3.5 -6.09375 "/>
</symbol>
<symbol overflow="visible" id="glyph1-23">
<path style="stroke:none;" d="M 0.921875 -9.625 L 0.921875 0 L 2.015625 0 L 2.015625 -3.8125 C 2.015625 -5.234375 2.765625 -6.15625 3.890625 -6.15625 C 4.265625 -6.15625 4.609375 -6.046875 4.875 -5.84375 C 5.1875 -5.609375 5.328125 -5.28125 5.328125 -4.796875 L 5.328125 0 L 6.421875 0 L 6.421875 -5.234375 C 6.421875 -6.390625 5.578125 -7.109375 4.234375 -7.109375 C 3.265625 -7.109375 2.671875 -6.8125 2.015625 -5.96875 L 2.015625 -9.625 Z M 0.921875 -9.625 "/>
</symbol>
</g>
</defs>
<g id="surface997">
<rect x="0" y="0" width="649" height="374" style="fill:rgb(100%,100%,100%);fill-opacity:1;stroke:none;"/>
<path style=" stroke:none;fill-rule:nonzero;fill:rgb(97.254902%,46.27451%,42.745098%);fill-opacity:1;" d="M 29.5 361.304688 L 619.5 361.304688 L 619.5 285.121094 L 29.5 285.121094 Z M 29.5 361.304688 "/>
<path style=" stroke:none;fill-rule:nonzero;fill:rgb(48.627451%,68.235294%,0%);fill-opacity:1;" d="M 29.5 276.65625 L 601.582031 276.65625 L 601.582031 200.472656 L 29.5 200.472656 Z M 29.5 276.65625 "/>
<path style=" stroke:none;fill-rule:nonzero;fill:rgb(78.039216%,48.627451%,100%);fill-opacity:1;" d="M 29.5 192.007812 L 589.839844 192.007812 L 589.839844 115.824219 L 29.5 115.824219 Z M 29.5 192.007812 "/>
<path style=" stroke:none;fill-rule:nonzero;fill:rgb(0%,74.901961%,76.862745%);fill-opacity:1;" d="M 29.5 107.359375 L 560.636719 107.359375 L 560.636719 31.175781 L 29.5 31.175781 Z M 29.5 107.359375 "/>
<g style="fill:rgb(0%,0%,0%);fill-opacity:1;">
  <use xlink:href="#glyph0-1" x="576.5" y="326.758789"/>
  <use xlink:href="#glyph0-2" x="582.5" y="326.758789"/>
  <use xlink:href="#glyph0-1" x="585.5" y="326.758789"/>
  <use xlink:href="#glyph0-3" x="591.5" y="326.758789"/>
  <use xlink:href="#glyph0-4" x="597.5" y="326.758789"/>
</g>
<g style="fill:rgb(0%,0%,0%);fill-opacity:1;">
  <use xlink:href="#glyph0-1" x="559.480469" y="242.110352"/>
  <use xlink:href="#glyph0-2" x="565.480469" y="242.110352"/>
  <use xlink:href="#glyph0-5" x="568.480469" y="242.110352"/>
  <use xlink:href="#glyph0-6" x="574.480469" y="242.110352"/>
  <use xlink:href="#glyph0-3" x="580.480469" y="242.110352"/>
</g>
<g style="fill:rgb(0%,0%,0%);fill-opacity:1;">
  <use xlink:href="#glyph0-1" x="548.324219" y="157.461914"/>
  <use xlink:href="#glyph0-2" x="554.324219" y="157.461914"/>
  <use xlink:href="#glyph0-5" x="557.324219" y="157.461914"/>
  <use xlink:href="#glyph0-4" x="563.324219" y="157.461914"/>
  <use xlink:href="#glyph0-6" x="569.324219" y="157.461914"/>
</g>
<g style="fill:rgb(0%,0%,0%);fill-opacity:1;">
  <use xlink:href="#glyph0-1" x="520.578125" y="72.817383"/>
  <use xlink:href="#glyph0-2" x="526.578125" y="72.817383"/>
  <use xlink:href="#glyph0-5" x="529.578125" y="72.817383"/>
  <use xlink:href="#glyph0-1" x="535.578125" y="72.817383"/>
  <use xlink:href="#glyph0-7" x="541.578125" y="72.817383"/>
</g>
<g style="fill:rgb(0%,0%,0%);fill-opacity:1;">
  <use xlink:href="#glyph0-8" x="63.898438" y="326.758789"/>
  <use xlink:href="#glyph0-9" x="66.898438" y="326.758789"/>
  <use xlink:href="#glyph0-10" x="72.898438" y="326.758789"/>
  <use xlink:href="#glyph0-11" x="78.898438" y="326.758789"/>
  <use xlink:href="#glyph0-12" x="84.898438" y="326.758789"/>
  <use xlink:href="#glyph0-13" x="88.898438" y="326.758789"/>
  <use xlink:href="#glyph0-14" x="90.898438" y="326.758789"/>
  <use xlink:href="#glyph0-15" x="96.898438" y="326.758789"/>
</g>
<g style="fill:rgb(0%,0%,0%);fill-opacity:1;">
  <use xlink:href="#glyph0-16" x="58.898438" y="234.161133"/>
  <use xlink:href="#glyph0-17" x="65.898438" y="234.161133"/>
  <use xlink:href="#glyph0-15" x="71.898438" y="234.161133"/>
  <use xlink:href="#glyph0-18" x="74.898438" y="234.161133"/>
  <use xlink:href="#glyph0-17" x="80.898438" y="234.161133"/>
  <use xlink:href="#glyph0-9" x="86.898438" y="234.161133"/>
  <use xlink:href="#glyph0-13" x="92.898438" y="234.161133"/>
  <use xlink:href="#glyph0-12" x="94.898438" y="234.161133"/>
  <use xlink:href="#glyph0-19" x="98.898438" y="234.161133"/>
</g>
<g style="fill:rgb(0%,0%,0%);fill-opacity:1;">
  <use xlink:href="#glyph0-20" x="52.398438" y="250.05957"/>
  <use xlink:href="#glyph0-19" x="59.398438" y="250.05957"/>
  <use xlink:href="#glyph0-12" x="65.398438" y="250.05957"/>
  <use xlink:href="#glyph0-19" x="69.398438" y="250.05957"/>
  <use xlink:href="#glyph0-21" x="75.398438" y="250.05957"/>
  <use xlink:href="#glyph0-22" x="84.398438" y="250.05957"/>
  <use xlink:href="#glyph0-18" x="90.398438" y="250.05957"/>
  <use xlink:href="#glyph0-19" x="96.398438" y="250.05957"/>
  <use xlink:href="#glyph0-21" x="102.398438" y="250.05957"/>
</g>
<g style="fill:rgb(0%,0%,0%);fill-opacity:1;">
  <use xlink:href="#glyph0-23" x="55.898438" y="157.461914"/>
  <use xlink:href="#glyph0-24" x="63.898438" y="157.461914"/>
  <use xlink:href="#glyph0-21" x="69.898438" y="157.461914"/>
  <use xlink:href="#glyph0-13" x="78.898438" y="157.461914"/>
  <use xlink:href="#glyph0-9" x="80.898438" y="157.461914"/>
  <use xlink:href="#glyph0-25" x="86.898438" y="157.461914"/>
  <use xlink:href="#glyph0-15" x="92.898438" y="157.461914"/>
  <use xlink:href="#glyph0-26" x="95.898438" y="157.461914"/>
  <use xlink:href="#glyph0-9" x="101.898438" y="157.461914"/>
</g>
<g style="fill:rgb(0%,0%,0%);fill-opacity:1;">
  <use xlink:href="#glyph0-16" x="58.898438" y="64.868164"/>
  <use xlink:href="#glyph0-17" x="65.898438" y="64.868164"/>
  <use xlink:href="#glyph0-15" x="71.898438" y="64.868164"/>
  <use xlink:href="#glyph0-18" x="74.898438" y="64.868164"/>
  <use xlink:href="#glyph0-17" x="80.898438" y="64.868164"/>
  <use xlink:href="#glyph0-9" x="86.898438" y="64.868164"/>
  <use xlink:href="#glyph0-13" x="92.898438" y="64.868164"/>
  <use xlink:href="#glyph0-12" x="94.898438" y="64.868164"/>
  <use xlink:href="#glyph0-19" x="98.898438" y="64.868164"/>
</g>
<g style="fill:rgb(0%,0%,0%);fill-opacity:1;">
  <use xlink:href="#glyph0-27" x="59.398438" y="80.762695"/>
  <use xlink:href="#glyph0-18" x="67.398438" y="80.762695"/>
  <use xlink:href="#glyph0-19" x="73.398438" y="80.762695"/>
  <use xlink:href="#glyph0-12" x="79.398438" y="80.762695"/>
  <use xlink:href="#glyph0-17" x="83.398438" y="80.762695"/>
  <use xlink:href="#glyph0-15" x="89.398438" y="80.762695"/>
  <use xlink:href="#glyph0-18" x="92.398438" y="80.762695"/>
  <use xlink:href="#glyph0-19" x="98.398438" y="80.762695"/>
</g>
<g style="fill:rgb(0%,0%,0%);fill-opacity:1;">
  <use xlink:href="#glyph1-1" x="0" y="15.102539"/>
  <use xlink:href="#glyph1-2" x="10" y="15.102539"/>
  <use xlink:href="#glyph1-3" x="17" y="15.102539"/>
  <use xlink:href="#glyph1-4" x="28" y="15.102539"/>
  <use xlink:href="#glyph1-5" x="35" y="15.102539"/>
  <use xlink:href="#glyph1-6" x="42" y="15.102539"/>
  <use xlink:href="#glyph1-7" x="46" y="15.102539"/>
  <use xlink:href="#glyph1-8" x="49" y="15.102539"/>
  <use xlink:href="#glyph1-2" x="56" y="15.102539"/>
  <use xlink:href="#glyph1-9" x="63" y="15.102539"/>
  <use xlink:href="#glyph1-10" x="70" y="15.102539"/>
  <use xlink:href="#glyph1-2" x="74" y="15.102539"/>
  <use xlink:href="#glyph1-11" x="81" y="15.102539"/>
  <use xlink:href="#glyph1-10" x="85" y="15.102539"/>
  <use xlink:href="#glyph1-12" x="89" y="15.102539"/>
  <use xlink:href="#glyph1-5" x="92" y="15.102539"/>
  <use xlink:href="#glyph1-13" x="99" y="15.102539"/>
  <use xlink:href="#glyph1-2" x="105" y="15.102539"/>
  <use xlink:href="#glyph1-14" x="112" y="15.102539"/>
  <use xlink:href="#glyph1-15" x="119" y="15.102539"/>
  <use xlink:href="#glyph1-8" x="123" y="15.102539"/>
  <use xlink:href="#glyph1-10" x="130" y="15.102539"/>
  <use xlink:href="#glyph1-16" x="134" y="15.102539"/>
  <use xlink:href="#glyph1-13" x="141" y="15.102539"/>
  <use xlink:href="#glyph1-10" x="148" y="15.102539"/>
  <use xlink:href="#glyph1-5" x="152" y="15.102539"/>
  <use xlink:href="#glyph1-17" x="159" y="15.102539"/>
  <use xlink:href="#glyph1-18" x="165" y="15.102539"/>
  <use xlink:href="#glyph1-6" x="172" y="15.102539"/>
  <use xlink:href="#glyph1-5" x="176" y="15.102539"/>
  <use xlink:href="#glyph1-19" x="183" y="15.102539"/>
  <use xlink:href="#glyph1-18" x="190" y="15.102539"/>
  <use xlink:href="#glyph1-10" x="197" y="15.102539"/>
  <use xlink:href="#glyph1-20" x="201" y="15.102539"/>
  <use xlink:href="#glyph1-18" x="207" y="15.102539"/>
  <use xlink:href="#glyph1-13" x="214" y="15.102539"/>
  <use xlink:href="#glyph1-4" x="221" y="15.102539"/>
  <use xlink:href="#glyph1-6" x="228" y="15.102539"/>
  <use xlink:href="#glyph1-18" x="232" y="15.102539"/>
  <use xlink:href="#glyph1-8" x="239" y="15.102539"/>
  <use xlink:href="#glyph1-8" x="246" y="15.102539"/>
  <use xlink:href="#glyph1-10" x="253" y="15.102539"/>
  <use xlink:href="#glyph1-4" x="257" y="15.102539"/>
  <use xlink:href="#glyph1-18" x="264" y="15.102539"/>
  <use xlink:href="#glyph1-6" x="271" y="15.102539"/>
  <use xlink:href="#glyph1-10" x="275" y="15.102539"/>
  <use xlink:href="#glyph1-14" x="279" y="15.102539"/>
  <use xlink:href="#glyph1-9" x="286" y="15.102539"/>
  <use xlink:href="#glyph1-7" x="293" y="15.102539"/>
  <use xlink:href="#glyph1-21" x="296" y="15.102539"/>
  <use xlink:href="#glyph1-2" x="303" y="15.102539"/>
  <use xlink:href="#glyph1-22" x="310" y="15.102539"/>
  <use xlink:href="#glyph1-18" x="317" y="15.102539"/>
  <use xlink:href="#glyph1-10" x="324" y="15.102539"/>
  <use xlink:href="#glyph1-21" x="328" y="15.102539"/>
  <use xlink:href="#glyph1-23" x="335" y="15.102539"/>
  <use xlink:href="#glyph1-5" x="342" y="15.102539"/>
  <use xlink:href="#glyph1-6" x="349" y="15.102539"/>
  <use xlink:href="#glyph1-5" x="353" y="15.102539"/>
  <use xlink:href="#glyph1-21" x="360" y="15.102539"/>
  <use xlink:href="#glyph1-15" x="367" y="15.102539"/>
  <use xlink:href="#glyph1-18" x="370" y="15.102539"/>
  <use xlink:href="#glyph1-6" x="377" y="15.102539"/>
</g>
</g>
</svg>
